{
  "users": [
    { "id": 1, "name": "John Doe" },
    { "id": 2, "name": "Jane Smith" },
    { "id": 3, "name": "Jack Jones" },
    { "id": 4, "name": "Maggie Lee" },
    { "id": 5, "name": "Alex Cheng" },
    { "id": 6, "name": "Sam Kim" },
    { "id": 7, "name": "Emily Wang" },
    { "id": 8, "name": "Erica Cheung" },
    { "id": 9, "name": "David Liu" },
    { "id": 10, "name": "Grace Wu" }
  ]
}
